<?xml version="1.0" encoding="utf-8"?>
<!-- Generator: Adobe Illustrator 23.0.1, SVG Export Plug-In . SVG Version: 6.00 Build 0)  -->
<svg version="1.1" xmlns="http://www.w3.org/2000/svg" xmlns:xlink="http://www.w3.org/1999/xlink" x="0px" y="0px"
	 width="230.3201px" height="222.7576px" viewBox="0 0 230.3201 222.7576" style="enable-background:new 0 0 230.3201 222.7576;"
	 xml:space="preserve">
<style type="text/css">
	.st0{fill:#014F98;}
	.st1{fill:#FFFFFF;}
	.st2{fill:#E51B68;}
</style>
<g id="text">
</g>
<g id="circle">
	<g>
		<circle class="st0" cx="115.3047" cy="118.6383" r="81.2534"/>
	</g>
</g>
<g id="ticket">
	<g>
		<g>
			<path class="st1" d="M56.2682,140.614c4.33,5.727,11.3905,11.3343,20.7991,15.0588
				c22.4813,8.8992,24.2461,30.066,18.4053,38.9813c-4.5382,6.9293-9.4736,10.583-16.5564,10.2048c0,0-0.1816-0.0652-0.2053-0.0724
				c0.2201,0.0724,0.4933,0.2215,0.7075,0.285l21.8404,6.2469c0,0,0.0058,0,0.0102,0l-0.0088-0.0016
				c9.7187-4.9649,15.2124-11.0551,17.2548-22.3085c3.305-18.1954-7.5184-34.8492-27.2823-46.7936
				c-14.8212-8.9552-21.3249-14.8387-19.4892-24.949c1.6511-9.0955,10.3582-15.3482,23.5031-12.9631
				c11.3729,2.0675,19.4833,7.7192,23.7365,11.6208l8.4975-15.1681c-6.0888-5.2809-16.3156-10.7939-28.7015-13.0431
				c-9.0836-1.6496-17.2726-1.1311-24.2608,1.0529L56.2682,140.614z"/>
			<path class="st2" d="M77.0674,155.6728c-1.9094-0.7561-3.6535-1.6362-5.3652-2.5326
				c-6.7282-3.5192-11.9827-7.9614-15.434-12.5262l-0.5862,1.6526l-2.2595,6.3812l2.8561,4.191l-5.0359,1.9642l-0.0915,0.2526
				l-2.5919,7.1579L40.118,185.529c-0.3942,1.0917-0.285,2.2182,0.1551,3.212c0.4016,0.907,1.0706,1.7073,2.0187,2.1754
				c6.7342,3.3303,35.2806,13.4668,36.4192,13.8701c0.0237,0.0072,0.2053,0.0724,0.2053,0.0724
				c7.0828,0.3782,12.0182-3.2756,16.5564-10.2048C101.3134,185.7388,99.5486,164.5721,77.0674,155.6728z"/>
			<path class="st2" d="M169.8676,87.721l-6.8124-32.7212c-0.2776-1.8269-0.7635-2.8916-1.4458-3.7069
				c-0.2717-0.3248-0.4785-0.7249-0.8653-0.9422l-12.516-4.4196l0.0679-0.0534c-0.2226-1.0999-0.6589-2.0505-1.2618-2.8768
				c5.2526-3.5514,21.4843-13.8981,21.4052-27.3545c-0.0236-3.1352-1.304-5.5395-3.8308-7.1567
				c-2.7793-1.7513-5.5482-2.1974-8.236-1.3144c-6.3148,2.2642-10.4277,13.0211-11.9768,16.8475
				c-2.196,5.402-3.9504,10.5958-6.0712,14.7412c-0.0947,0.2259-0.1843,0.4437-0.2767,0.6662
				c-2.7087,0.2121-4.0163,1.4073-4.0163,1.4073l-0.0093,0.0772l-1.0968-0.3874c0,0-16.7114-6.1154-17.2459-6.0946
				c-1.5609-0.0636-2.7291,0.3838-4.5839,2.0407L85.8838,57.7158c-0.1698,0.1047-0.3456,0.2111-0.5376,0.3204L74.4594,88.7756
				c0.0178-0.006,0.0414-0.0044,0.0591-0.0104c6.9882-2.1842,15.1771-2.7025,24.2608-1.0529
				c9.0602,1.6452,16.9211,5.0492,22.8962,8.8195c2.1931,1.3837,4.1705,2.8058,5.8053,4.2236l-8.4974,15.1681
				c-4.2533-3.9016-12.3637-9.5532-23.7365-11.6207c-13.145-2.3851-21.8522,3.8676-23.5032,12.9631
				c-1.5343,8.4531,3.1117,14.0384,13.2232,20.848c1.982,1.335,3.8367,2.6329,6.266,4.101
				c19.764,11.9443,30.5873,28.5979,27.2823,46.7936c-2.0424,11.253-7.5361,17.3432-17.2548,22.3085l0.0089,0.0012l18.4599,6.0107
				c2.1754,0.8195,4.2325,0.2274,4.8409-1.4931l10.1058-28.5374l0.1802-0.5053l0.2539-0.7176l-2.6744-4.6979l4.8808-1.5298
				l0.6706-1.8932l27.7429-78.3393l4.0243-11.3609l0.127-0.285L169.8676,87.721z M139.4588,40.9758
				c0.6947,0.0532,1.468,0.2007,2.3393,0.5307c0.9402,0.3556,1.8123,0.7062,2.5891,1.3486c-0.2165,0.327-0.5397,0.8141-0.925,1.3931
				l-4.6652-1.6474C139.0107,42.0707,139.2303,41.5305,139.4588,40.9758z M145.6588,44.3705
				c0.1403,0.2411,0.2748,0.5055,0.4037,0.7959l-0.7539-0.2662C145.4349,44.7093,145.554,44.5292,145.6588,44.3705z
				 M145.6512,25.0905c3.3375-7.1036,5.371-14.0548,11.2959-16.0796c2.1738-0.7102,4.3669-0.3336,6.6693,1.1209
				c1.9582,1.2568,2.9226,3.0661,2.9359,5.5278c0.0686,12.222-15.8782,22.7392-20.8486,25.9602
				c-1.1079-0.8856-2.5124-1.5406-4.2097-1.9432c-0.5022-0.1045-0.9576-0.1551-1.4074-0.2009
				C142.1742,35.3457,143.4561,30.4874,145.6512,25.0905z M136.0623,41.5539c0.2925-0.1187,0.729-0.2934,1.2876-0.4267
				c-0.1155,0.284-0.2295,0.5655-0.3409,0.8421l-1.0332-0.3648L136.0623,41.5539z M137.7587,56.9509
				c-0.0455,0.1479-0.086,0.2984-0.1453,0.4379c-0.0355,0.0914-0.087,0.1707-0.1273,0.2586
				c-0.8961,1.7745-2.8984,2.7663-4.9267,2.2686c-0.5403-0.1325-1.0273-0.3698-1.4639-0.6686
				c-0.8613-0.6696-1.4776-1.5928-1.7422-2.632c-0.1374-0.7783-0.0724-1.586,0.1964-2.3807
				c0.6272-1.7681,2.2126-2.8812,3.9684-3.0237c-0.3186,0.9082-0.4931,1.4311-0.4995,1.4483
				c-0.1669,0.5035,0.1196,1.0677,0.5951,1.2272c0.4992,0.1683,1.0309-0.1019,1.1963-0.6072
				c0.0056-0.0178,0.2094-0.632,0.5876-1.7053c0.7732,0.382,1.4059,0.9562,1.8472,1.668c-0.284,0.3728-0.5333,0.6866-0.7173,0.891
				c-0.3573,0.3913-0.3264,1.0012,0.0546,1.3631l0.2113,0.1505c0.3637,0.1887,0.8284,0.1197,1.1167-0.2059
				C137.9291,55.9423,137.8987,56.4478,137.7587,56.9509z"/>
		</g>
	</g>
</g>
</svg>
