<?xml version="1.0" encoding="utf-8"?>
<!-- Generator: Adobe Illustrator 23.0.1, SVG Export Plug-In . SVG Version: 6.00 Build 0)  -->
<svg version="1.1" xmlns="http://www.w3.org/2000/svg" xmlns:xlink="http://www.w3.org/1999/xlink" x="0px" y="0px"
	 viewBox="0 0 450.7 220.8" style="enable-background:new 0 0 450.7 220.8;" xml:space="preserve">
<g>
	<path fill="#fff" d="M337.3,195.1c0.4,0.9,1.1,1.4,1.9,1.9c0.9,0.4,1.7,0.6,2.6,0.6c0.4,0,0.9-0.1,1.3-0.2c0.4-0.2,0.8-0.3,1.1-0.6
		c0.3-0.3,0.6-0.5,0.8-0.9c0.2-0.4,0.3-0.7,0.3-1.2c0-0.7-0.2-1.3-0.7-1.6c-0.5-0.3-1-0.6-1.7-0.9c-0.7-0.2-1.4-0.4-2.2-0.5
		s-1.5-0.4-2.2-0.7c-0.7-0.3-1.2-0.7-1.7-1.3c-0.5-0.5-0.7-1.3-0.7-2.3c0-0.7,0.2-1.4,0.5-2c0.3-0.5,0.7-1,1.2-1.4
		c0.5-0.4,1.1-0.6,1.7-0.8s1.3-0.3,1.9-0.3c1.3,0,2.4,0.2,3.3,0.7c0.9,0.5,1.6,1.2,2.2,2.2l-1.8,1.1c-0.4-0.7-0.9-1.3-1.4-1.6
		c-0.6-0.4-1.3-0.5-2.2-0.5c-0.4,0-0.7,0.1-1.1,0.2c-0.4,0.1-0.7,0.3-1.1,0.5c-0.3,0.2-0.6,0.5-0.8,0.7c-0.2,0.3-0.3,0.7-0.3,1.1
		c0,0.7,0.2,1.2,0.7,1.5c0.5,0.3,1,0.6,1.7,0.8c0.7,0.2,1.4,0.4,2.2,0.5c0.8,0.2,1.5,0.4,2.2,0.6c0.7,0.3,1.2,0.7,1.7,1.3
		s0.7,1.4,0.7,2.4c0,0.8-0.2,1.5-0.4,2.1c-0.3,0.6-0.7,1.1-1.2,1.5c-0.5,0.4-1.1,0.7-1.8,0.9c-0.7,0.2-1.4,0.3-2.1,0.3
		c-1.3,0-2.5-0.3-3.7-0.7c-1.1-0.5-2-1.3-2.5-2.4L337.3,195.1z"/>
	<path fill="#fff" d="M365.1,196.1c-0.8,1.2-1.8,2-2.9,2.5c-1.2,0.5-2.4,0.7-3.8,0.7c-1.2,0-2.2-0.2-3.2-0.6c-1-0.4-1.8-1-2.5-1.7
		c-0.7-0.7-1.2-1.6-1.6-2.6c-0.4-1-0.5-2.1-0.5-3.3c0-1.2,0.2-2.2,0.6-3.2c0.4-1,0.9-1.9,1.6-2.5c0.7-0.7,1.5-1.3,2.4-1.7
		c1-0.4,2-0.6,3.1-0.6s2.2,0.2,3.1,0.6c0.9,0.4,1.6,1,2.3,1.6c0.6,0.7,1.1,1.4,1.4,2.3c0.3,0.9,0.5,1.8,0.5,2.7v1.4h-13
		c0,0.4,0.1,1,0.3,1.6c0.2,0.6,0.5,1.3,0.9,1.9c0.4,0.6,1.1,1.2,1.8,1.6s1.7,0.7,2.9,0.7c1,0,2-0.3,3-0.7c1-0.5,1.7-1.2,2.2-2
		L365.1,196.1z M363.6,190c0-0.7-0.2-1.3-0.4-2c-0.3-0.6-0.6-1.1-1.1-1.6s-1.1-0.8-1.7-1.1c-0.6-0.3-1.4-0.4-2.1-0.4
		c-1.1,0-2,0.2-2.7,0.7c-0.7,0.4-1.3,1-1.7,1.5s-0.7,1.2-0.9,1.7c-0.2,0.5-0.3,0.9-0.3,1.1L363.6,190L363.6,190L363.6,190z"/>
	<path fill="#fff" d="M385.6,198c0,1.9-0.3,3.4-0.9,4.7c-0.6,1.2-1.3,2.1-2.1,2.8c-0.9,0.6-1.8,1.1-2.7,1.3c-1,0.2-1.8,0.3-2.6,0.3
		c-0.8,0-1.5-0.1-2.3-0.2s-1.4-0.4-2.1-0.6c-0.7-0.3-1.3-0.6-1.8-1c-0.5-0.4-1-0.9-1.4-1.4l1.6-1.5c0.7,1,1.6,1.8,2.7,2.2
		c1.1,0.5,2.2,0.7,3.4,0.7c1,0,1.9-0.2,2.6-0.4c0.7-0.3,1.3-0.6,1.8-1.1c0.5-0.4,0.8-0.9,1.1-1.4c0.3-0.5,0.4-1.1,0.6-1.6
		c0.1-0.5,0.2-1,0.2-1.5s0.1-0.9,0.1-1.1v-2.1h-0.1c-0.6,1-1.4,1.7-2.3,2.2c-1,0.5-2.2,0.8-3.5,0.8c-1.1,0-2.2-0.2-3.2-0.6
		c-1-0.4-1.9-1-2.7-1.7c-0.7-0.7-1.3-1.6-1.8-2.5c-0.4-1-0.6-2-0.6-3.1c0-1.1,0.2-2.1,0.6-3.1s1-1.8,1.8-2.5
		c0.7-0.7,1.6-1.3,2.7-1.7c1-0.4,2.1-0.6,3.2-0.6c1.3,0,2.5,0.3,3.5,0.8c1,0.5,1.8,1.3,2.3,2.2h0.1v-2.6h2L385.6,198L385.6,198
		L385.6,198z M383.7,191.1c0-0.9-0.2-1.6-0.5-2.4c-0.3-0.7-0.7-1.4-1.3-2c-0.5-0.5-1.2-1-2-1.3c-0.7-0.3-1.5-0.5-2.4-0.5
		c-0.9,0-1.6,0.2-2.4,0.5s-1.4,0.7-2,1.3c-0.5,0.5-1,1.2-1.3,2c-0.3,0.7-0.5,1.5-0.5,2.4s0.2,1.6,0.5,2.4c0.3,0.7,0.7,1.4,1.3,2
		c0.5,0.5,1.2,1,2,1.3c0.7,0.3,1.5,0.5,2.4,0.5c0.9,0,1.6-0.2,2.4-0.5c0.7-0.3,1.4-0.7,2-1.3c0.5-0.5,1-1.2,1.3-2
		C383.5,192.8,383.7,192,383.7,191.1z"/>
	<path fill="#fff" d="M403.6,194.7c0,0.3,0,0.6,0.1,1.1c0,0.4,0.1,0.9,0.1,1.3c0,0.4,0.1,0.8,0.1,1.2c0,0.4,0.1,0.6,0.1,0.9h-2
		c0-0.6-0.1-1.1-0.1-1.7c0-0.5-0.1-0.9-0.1-1.1h-0.1c-0.4,0.9-1.1,1.6-2,2.2c-1,0.6-2,0.9-3.3,0.9c-1.2,0-2.2-0.2-3-0.6
		c-0.8-0.4-1.4-0.9-1.8-1.5c-0.4-0.6-0.7-1.3-0.9-2.1c-0.2-0.8-0.2-1.6-0.2-2.5v-9.2h2v9.1c0,0.6,0.1,1.2,0.2,1.8s0.3,1.1,0.6,1.6
		c0.3,0.5,0.7,0.9,1.2,1.1c0.5,0.3,1.2,0.4,2,0.4c0.7,0,1.4-0.1,2.1-0.4s1.2-0.6,1.7-1.2c0.5-0.5,0.9-1.2,1.1-2
		c0.3-0.8,0.4-1.7,0.4-2.8v-7.7h2L403.6,194.7L403.6,194.7L403.6,194.7L403.6,194.7z"/>
	<path fill="#fff" d="M409.1,187.9c0-0.3,0-0.6-0.1-1.1c0-0.4-0.1-0.9-0.1-1.3c0-0.4-0.1-0.8-0.1-1.2c0-0.4-0.1-0.6-0.1-0.9h2
		c0,0.6,0.1,1.1,0.1,1.7c0,0.5,0.1,0.9,0.1,1.1c0.5-0.9,1.2-1.6,2-2.2c0.8-0.6,1.8-0.9,3-0.9c0.2,0,0.4,0,0.6,0.1
		c0.2,0.1,0.4,0.1,0.6,0.1l-0.2,2c-0.3-0.1-0.5-0.2-0.7-0.2c-0.9,0-1.6,0.2-2.3,0.4c-0.6,0.3-1.2,0.7-1.6,1.2
		c-0.4,0.5-0.7,1.1-0.9,1.7c-0.2,0.6-0.3,1.4-0.3,2.1v8.4h-2L409.1,187.9L409.1,187.9z"/>
	<path fill="#fff" d="M418.8,191.3c0-1.2,0.2-2.3,0.6-3.2c0.4-1,1-1.9,1.7-2.6c0.7-0.7,1.6-1.3,2.6-1.7c1-0.4,2.1-0.6,3.3-0.6
		c1.2,0,2.3,0.2,3.2,0.6c1,0.4,1.9,1,2.6,1.7c0.7,0.7,1.3,1.6,1.7,2.6c0.4,1,0.6,2.1,0.6,3.2c0,1.2-0.2,2.3-0.6,3.3
		c-0.4,1-1,1.9-1.7,2.6c-0.7,0.7-1.6,1.3-2.6,1.7c-1,0.4-2.1,0.6-3.2,0.6s-2.3-0.2-3.3-0.6c-1-0.4-1.9-1-2.6-1.7
		c-0.7-0.7-1.3-1.6-1.7-2.6C419,193.5,418.8,192.5,418.8,191.3z M420.8,191.3c0,0.9,0.2,1.7,0.4,2.4c0.3,0.7,0.7,1.4,1.2,2
		c0.5,0.6,1.2,1,2,1.4c0.7,0.3,1.6,0.5,2.5,0.5c1,0,1.8-0.2,2.5-0.5s1.4-0.8,2-1.4c0.5-0.6,1-1.2,1.2-2c0.3-0.8,0.4-1.6,0.4-2.4
		s-0.2-1.7-0.4-2.4c-0.3-0.7-0.7-1.4-1.2-2c-0.5-0.6-1.2-1-2-1.4c-0.7-0.3-1.6-0.5-2.5-0.5c-1,0-1.8,0.2-2.5,0.5
		c-0.7,0.3-1.4,0.8-2,1.4s-1,1.2-1.2,2C421,189.6,420.8,190.4,420.8,191.3z"/>
	<path fill="#fff" d="M439.6,195.1c0.4,0.9,1.1,1.4,1.9,1.9c0.9,0.4,1.7,0.6,2.6,0.6c0.4,0,0.9-0.1,1.3-0.2c0.4-0.2,0.8-0.3,1.1-0.6
		c0.3-0.3,0.6-0.5,0.8-0.9c0.2-0.4,0.3-0.7,0.3-1.2c0-0.7-0.2-1.3-0.7-1.6c-0.5-0.3-1-0.6-1.7-0.9c-0.7-0.2-1.4-0.4-2.2-0.5
		c-0.8-0.2-1.5-0.4-2.2-0.7c-0.7-0.3-1.2-0.7-1.7-1.3c-0.5-0.5-0.7-1.3-0.7-2.3c0-0.7,0.2-1.4,0.5-2c0.3-0.6,0.7-1,1.2-1.4
		c0.5-0.4,1.1-0.6,1.7-0.8s1.3-0.3,1.9-0.3c1.3,0,2.4,0.2,3.3,0.7s1.6,1.2,2.2,2.2l-1.8,1.1c-0.4-0.7-0.9-1.3-1.4-1.6
		c-0.6-0.4-1.3-0.5-2.2-0.5c-0.4,0-0.7,0.1-1.1,0.2c-0.4,0.1-0.7,0.3-1.1,0.5c-0.3,0.2-0.6,0.5-0.8,0.7c-0.2,0.3-0.3,0.7-0.3,1.1
		c0,0.7,0.2,1.2,0.7,1.5c0.5,0.3,1,0.6,1.7,0.8c0.7,0.2,1.4,0.4,2.2,0.5c0.8,0.2,1.5,0.4,2.2,0.6c0.7,0.3,1.2,0.7,1.7,1.3
		c0.5,0.6,0.7,1.4,0.7,2.4c0,0.8-0.2,1.5-0.4,2.1c-0.3,0.6-0.7,1.1-1.2,1.5c-0.5,0.4-1.1,0.7-1.8,0.9c-0.7,0.2-1.4,0.3-2.1,0.3
		c-1.3,0-2.5-0.3-3.7-0.7c-1.1-0.5-2-1.3-2.5-2.4L439.6,195.1z"/>
</g>
<g>
	<path fill="#fff" d="M442.6,73.7c-3.4-7.6-8-14.4-13.7-20.1c-5.7-5.7-12.5-10.3-20.1-13.6c-7.7-3.3-15.8-5-24.3-5c-8.9,0.3-17.2,2.2-25,5.7
		c-7.7,3.4-14.4,7.9-20.1,13.6c-5.7,5.7-10.1,12.3-13.3,19.9c-3.2,7.6-4.8,15.7-4.8,24.4c0,9,1.7,17.4,5,25
		c3.3,7.6,7.9,14.3,13.6,20c5.7,5.7,12.5,10.1,20.1,13.2c7.7,3.1,15.9,4.7,24.6,4.7c8.9,0,17.2-1.7,24.8-5c7.6-3.3,14.3-7.9,20-13.6
		c5.6-5.7,10.1-12.4,13.4-20c3.3-7.6,5-15.7,5-24.4C447.7,89.6,446,81.4,442.6,73.7z M411.4,109.9c-1.5,3.6-3.7,6.7-6.3,9.4
		c-2.7,2.7-5.7,4.8-9.3,6.4c-3.6,1.5-7.4,2.3-11.4,2.3c-4,0-7.8-0.7-11.3-2.3c-3.5-1.6-6.6-3.7-9.3-6.4c-2.7-2.7-4.8-5.8-6.4-9.4
		c-1.5-3.6-2.3-7.3-2.3-11.4c0-4.2,0.7-8.1,2.3-11.6c1.6-3.6,3.7-6.7,6.4-9.3c2.7-2.7,5.8-4.7,9.3-6.2c3.5-1.5,7.2-2.2,11.3-2.2
		c8.3,0.4,15.2,3.3,20.6,8.9c5.4,5.6,8.2,12.4,8.6,20.4C413.7,102.5,413,106.3,411.4,109.9z"/>
	<path fill="#fff" d="M45.5,35.2c5.1,0,10.1,0.8,15,2.4c4.9,1.6,9.4,4.2,13.4,7.5c8.2-6.7,17.7-10,28.6-10c6,0,11.7,1.1,17.3,3.4
		c5.6,2.3,10.4,5.4,14.6,9.4c4.2,3.9,7.5,8.6,10,14.1c2.5,5.5,3.7,11.3,3.7,17.4v64.2c0,4.1-1.7,7.7-5.1,10.8
		c-3.4,3.1-7.3,4.6-11.7,4.6c-4.4,0-8.3-1.7-11.6-5c-3.3-3.3-5-7.2-5-11.6V80.2c0-3.2-1.1-6-3.4-8.2c-2.3-2.2-5.1-3.3-8.6-3.3
		c-2.9,0-5.6,1-8.1,3c-2.5,2-3.7,4.8-3.7,8.6v30.4c0,4.6-1.7,8.5-5,11.7c-3.3,3.2-7.3,4.9-11.9,4.9c-4.3,0-8.1-1.5-11.5-4.5
		c-3.4-3-5.1-6.6-5.1-10.9V80.3c-0.2-3.4-1.5-6.2-3.8-8.3c-2.4-2.1-5-3.2-8-3.2c-3.2,0-6,1.1-8.3,3.3c-2.3,2.2-3.5,5-3.7,8.4v63.5
		c-0.4,4.1-2.1,7.6-5.2,10.6c-3.2,3-7,4.5-11.4,4.5c-2.4,0-4.6-0.4-6.7-1.3c-2-0.8-3.8-2-5.4-3.6c-1.6-1.6-2.8-3.3-3.7-5.4
		s-1.3-4.2-1.1-6.4V79.4c0-6,1.2-11.6,3.6-17s5.6-10.1,9.7-14.1s8.9-7.2,14.4-9.6C33.3,36.4,39.2,35.2,45.5,35.2z"/>
	<path fill="#fff" d="M159.3,30.2c3.2,3,7.4,4.7,12.4,4.8c4.5,0,8.4-1.7,11.6-5.1c3.2-3.4,4.8-7.4,4.8-11.9c0-4.5-1.6-8.5-4.8-11.9
		c-3.2-3.4-7.1-5.1-11.6-5.1s-8.5,1.5-11.9,4.7c-3.4,3.2-5.2,7-5.4,11.5C154.5,22.8,156.1,27.2,159.3,30.2z"/>
	<path fill="#fff" d="M263.7,208.3h-8.3c-4.4,0.4-8.2,2.2-11.5,5.5c-3.5,3.3-7.6,5-12.4,5s-8.9-1.8-12.4-5.2c-3.3-3.1-5.1-6.9-5.4-11.4
		c-0.3-4.5,1.1-8.3,4-11.6c5.2-6.6,12.9-11.4,23-14.4c4.5-1.4,9.4-2.2,14.6-2.3h19.3c2.6-0.4,4.7-1.5,6.3-3.4
		c3.8-5.7,5.1-11,3.9-15.9v-0.3c-3.5,1.9-7.4,3.5-11.9,4.7c-4.5,1.2-10.3,1.8-17.6,1.8c-9.2,0-17.7-1.6-25.5-4.7s-14.4-7.5-20-13.1
		c-5.6-5.6-9.9-12.2-13.1-20c-3.1-7.7-4.7-16.2-4.7-25.5c0-8.5,1.8-16.6,5.2-24.3c3.5-7.6,8.1-14.4,14-20.1
		c5.8-5.7,12.5-10.3,20.1-13.7c7.6-3.4,15.6-5.1,23.9-5.1c8.7,0,16.9,1.6,24.6,5c7.6,3.3,14.4,7.9,20.1,13.6s10.2,12.5,13.4,20.1
		c3.2,7.6,4.8,15.9,4.8,24.6c0,11.8-2.5,22.3-7.6,31.4c5,6.8,7.6,17.8,7.6,33.2c0.2,5-0.9,10.6-3.3,16.6c-2.3,6-5.5,11.1-9.4,15.3
		c-3.9,4.2-8.6,7.5-14,10c-5.4,2.5-11.3,4-17.5,4.3h-8.9L263.7,208.3L263.7,208.3L263.7,208.3z M255.3,68.4c-3.8,0-7.5,0.9-11,2.5
		s-6.6,3.8-9.3,6.5c-2.7,2.7-4.9,5.8-6.5,9.3s-2.5,7.2-2.5,11s0.7,7.5,2.2,11.1s3.5,6.7,6.2,9.4c2.6,2.7,5.7,4.9,9.3,6.5
		c3.6,1.6,7.4,2.5,11.6,2.5c4.2,0,8.1-0.8,11.7-2.3c3.7-1.6,6.8-3.8,9.4-6.5c2.6-2.8,4.7-5.9,6.2-9.4c1.5-3.5,2.2-7.2,2.2-11.3
		c0-4-0.9-7.8-2.5-11.4s-3.8-6.6-6.5-9.3c-2.7-2.6-5.8-4.7-9.4-6.3C262.8,69.1,259.1,68.4,255.3,68.4z"/>
	<path fill="#fff" d="M181.8,48.7c-2.9-3.1-6.5-4.6-10.8-4.6c-4.2,0.2-7.5,1.6-10.6,4.3c-3.1,2.7-4.7,6.2-4.7,10.3v86.7c0,4.6,1.9,8.2,4.9,10.8
		c3,2.6,6.3,3.9,10.6,3.9c4.7-0.3,8.5-1.9,11.3-4.8c2.8-2.9,4.2-6.4,4.2-10.8V59.7C186.7,55.5,184.6,51.8,181.8,48.7z"/>
</g>
</svg>
